\\medjames.com\corp\Claims\APPS\MedCsX\appraisal_request_template_new.txt

to

<<<<<<< HEAD
=======
<<<<<<< HEAD
=======
<<<<<<< HEAD
=======
<<<<<<< HEAD
=======
<<<<<<< HEAD
>>>>>>> 86e37d4fa8cd4ee7e1470c8ef9fdffd257442fdc
>>>>>>> 7975b64ffd37ae06952994fe0ed5baf53515de85
>>>>>>> fdbaaf2594430b1a596aade8951c8492b56f30f0
>>>>>>> 338a4e7e077fda7b33e7f082243ce7bf7a68233f
../AppraisalTemplates/appraisal_request_template_new.txt

Add Active field to Document_type table bit not null default 0


Add to Accident_Type table
 CV_Merged_into_IV_lane = 369,
 IV_merged_into_CV_lane = 370,
<<<<<<< HEAD
 IV_parked_and_unoccupied_when_struck_by_CV  = 371
=======
<<<<<<< HEAD
 IV_parked_and_unoccupied_when_struck_by_CV  = 371
=======
<<<<<<< HEAD
 IV_parked_and_unoccupied_when_struck_by_CV  = 371
=======
<<<<<<< HEAD
 IV_parked_and_unoccupied_when_struck_by_CV  = 371
=======
 IV_parked_and_unoccupied_when_struck_by_CV  = 371
=======
../AppraisalTemplates/appraisal_request_template_new.txt
>>>>>>> ce191b03970d9ac953fc698656d1e3df7843a588
>>>>>>> 86e37d4fa8cd4ee7e1470c8ef9fdffd257442fdc
>>>>>>> 7975b64ffd37ae06952994fe0ed5baf53515de85
>>>>>>> fdbaaf2594430b1a596aade8951c8492b56f30f0
>>>>>>> 338a4e7e077fda7b33e7f082243ce7bf7a68233f
